<?xml version="1.0" encoding="UTF-8"?>
<kml xmlns="http://www.opengis.net/kml/2.2" xmlns:gx="http://www.google.com/kml/ext/2.2" xmlns:kml="http://www.opengis.net/kml/2.2" xmlns:atom="http://www.w3.org/2005/Atom">
<Document>
	<name>5 de Febrero - Hercules 1732 y 1729 de 06 a 14 hrs.kml</name>
	<visibility>0</visibility>
	<Style id="s_ylw-pushpin_hl070">
		<IconStyle>
			<scale>1.3</scale>
			<Icon>
				<href>http://maps.google.com/mapfiles/kml/pushpin/ylw-pushpin.png</href>
			</Icon>
			<hotSpot x="20" y="2" xunits="pixels" yunits="pixels"/>
		</IconStyle>
		<LineStyle>
			<color>ff00aa00</color>
			<width>5</width>
		</LineStyle>
	</Style>
	<StyleMap id="m_ylw-pushpin1500">
		<Pair>
			<key>normal</key>
			<styleUrl>#s_ylw-pushpin180</styleUrl>
		</Pair>
		<Pair>
			<key>highlight</key>
			<styleUrl>#s_ylw-pushpin_hl070</styleUrl>
		</Pair>
	</StyleMap>
	<Style id="s_ylw-pushpin180">
		<IconStyle>
			<scale>1.1</scale>
			<Icon>
				<href>http://maps.google.com/mapfiles/kml/pushpin/ylw-pushpin.png</href>
			</Icon>
			<hotSpot x="20" y="2" xunits="pixels" yunits="pixels"/>
		</IconStyle>
		<LineStyle>
			<color>ff00aa00</color>
			<width>5</width>
		</LineStyle>
	</Style>
	<Placemark>
		<name>5 de Febrero - Hercules 1732 y 1729 de 06 a 14 hrs</name>
		<visibility>0</visibility>
		<styleUrl>#m_ylw-pushpin1500</styleUrl>
		<LineString>
			<tessellate>1</tessellate>
			<coordinates>
				-100.4179316502476,20.60467432525809,0 -100.4172986881229,20.60241047837635,0 -100.4165982072981,20.59993138874574,0 -100.415972025429,20.5980788526061,0 -100.4152816853702,20.59550983516068,0 -100.4126603683047,20.58705508361024,0 -100.4106676725946,20.58483647845275,0 -100.407231026044,20.58172069467454,0 -100.3991179738876,20.57429893628466,0 -100.3980176188566,20.57381420074032,0 -100.3971745617824,20.57398115363146,0 -100.3962621120135,20.57455700315161,0 -100.3951961273186,20.57499887598574,0 -100.3922466221417,20.57563205186659,0 -100.3909827607418,20.57590460301369,0 -100.3865581584078,20.57687386737964,0 -100.3833240699858,20.57750222188622,0 -100.3807219169878,20.57798291339826,0 -100.3769543258574,20.57872768135752,0 -100.3612362869716,20.58196194779533,0 -100.36053837578,20.58178466458729,0 -100.3603573484619,20.58149713051138,0 -100.3603446758885,20.58118848915938,0 -100.3605254489503,20.58095175311526,0 -100.3606962304041,20.5808222680126,0 -100.3609156264934,20.58079176077309,0 -100.3611931401073,20.58085089217635,0 -100.361453531086,20.58109402330212,0 -100.3615992103322,20.58130327351597,0 -100.3616882548582,20.58167825260325,0 -100.3617538412747,20.5826037064504,0 -100.3618595352462,20.58356902632033,0 -100.3622520723912,20.58472405843853,0 -100.3630987288678,20.58657486754209,0 -100.3630980403426,20.58682419192197,0 -100.3630008240682,20.58742425472568,0 -100.3625625017662,20.58869134272831,0 -100.3629506719923,20.58919139582597,0 -100.3631935668345,20.5893461475056,0 -100.3642073903049,20.58967560968459,0 -100.3655057005261,20.59011901887326,0 -100.3661052814545,20.59078009661649,0 -100.3671976662831,20.5918907920058,0 -100.3682884660547,20.59295563906955,0 -100.3720538116707,20.59674288316656,0 -100.3721134297749,20.59676146405055,0 -100.3702434910229,20.59818195548349,0 -100.3702748352742,20.59830454692598,0 -100.3701392767907,20.59861210154762,0 -100.3698088118611,20.5998703716789,0 -100.3697511058743,20.59997290016208,0 -100.3691444669811,20.60046894646213,0 -100.3677822592445,20.60124003402068,0 -100.3669780598077,20.60166826301875,0 -100.366617067584,20.60178996508235,0 -100.3662523478789,20.60180282365629,0 -100.3663845273382,20.60387893119848,0 -100.3647103767949,20.60390512334807,0 -100.3628773638641,20.60347348217122,0 -100.3613223642037,20.60270505534313,0 -100.3603442127313,20.60215926024742,0 -100.3587559619774,20.60179739649123,0 -100.356777039035,20.60160234469264,0 -100.3553172688182,20.60154730966213,0 -100.3538022914098,20.60208889733748,0 -100.3504661546034,20.60379926586955,0 -100.3486377794269,20.60486885001655,0 -100.3473287771697,20.60538367818637,0 -100.3465198788048,20.605636465323,0 -100.3455724511461,20.605793777813,0 -100.344807300287,20.60587617387105,0 -100.3445743707962,20.60479523046027,0 -100.3443662097352,20.60432505690505,0 -100.3440661687489,20.60347953742289,0 -100.3450417638311,20.60328400350754,0 -100.3471119721008,20.60243079313386,0 -100.3489519423294,20.60174158126898,0 -100.3496883011588,20.60141990429964,0 -100.3505594679223,20.60107687550856,0 -100.3522215487544,20.60019088629659,0 -100.3532713536605,20.59987539849877,0 -100.35454226264,20.59922487473315,0 -100.3554539482491,20.59889823088329,0 -100.3556592669858,20.59875940926138,0 -100.3560040886124,20.59869559404927,0 -100.3564836190827,20.59871830690195,0 -100.3575095052478,20.59918709637615,0 -100.3578041388338,20.59950741768977,0 -100.3608268599351,20.60067642063328,0 
			</coordinates>
		</LineString>
	</Placemark>
</Document>
</kml>
