<?xml version="1.0" encoding="UTF-8"?>
<kml xmlns="http://www.opengis.net/kml/2.2" xmlns:gx="http://www.google.com/kml/ext/2.2" xmlns:kml="http://www.opengis.net/kml/2.2" xmlns:atom="http://www.w3.org/2005/Atom">
<Document>
	<name>alameda-lomas_unid1802 6-7 am.kml</name>
	<StyleMap id="LineStyle0031">
		<Pair>
			<key>normal</key>
			<styleUrl>#LineStyle002</styleUrl>
		</Pair>
		<Pair>
			<key>highlight</key>
			<styleUrl>#LineStyle0030</styleUrl>
		</Pair>
	</StyleMap>
	<Style id="LineStyle002">
		<LabelStyle>
			<color>00000000</color>
			<scale>0</scale>
		</LabelStyle>
		<LineStyle>
			<color>ff1547dc</color>
			<width>5.3</width>
		</LineStyle>
		<PolyStyle>
			<color>00000000</color>
			<outline>0</outline>
		</PolyStyle>
	</Style>
	<Style id="LineStyle0030">
		<LabelStyle>
			<color>00000000</color>
			<scale>0</scale>
		</LabelStyle>
		<LineStyle>
			<color>ff1547dc</color>
			<width>5.3</width>
		</LineStyle>
		<PolyStyle>
			<color>00000000</color>
			<outline>0</outline>
		</PolyStyle>
	</Style>
	<Placemark>
		<name>alameda-lomas_unid:1802 6-7 am</name>
		<visibility>0</visibility>
		<styleUrl>#LineStyle0031</styleUrl>
		<LineString>
			<tessellate>1</tessellate>
			<coordinates>
				-100.3850442310818,20.57589189767272,0 -100.3848577366165,20.57538421206814,0 -100.3847196694111,20.57488905062604,0 -100.3847754590088,20.57478803146339,0 -100.385149409474,20.57461658527341,0 -100.3855797973821,20.57451098894418,0 -100.3860613771328,20.57435106649906,0 -100.3884066449561,20.57371346077906,0 -100.3934468748582,20.57246847877313,0 -100.3939557434928,20.57232253243649,0 -100.3911179152996,20.56469190329458,0 -100.3892249611246,20.55993044433429,0 -100.3921762827211,20.55899651843786,0 -100.3933843689557,20.56247231918443,0 
			</coordinates>
		</LineString>
	</Placemark>
</Document>
</kml>
