<?xml version="1.0" encoding="UTF-8"?>
<kml xmlns="http://www.opengis.net/kml/2.2" xmlns:gx="http://www.google.com/kml/ext/2.2" xmlns:kml="http://www.opengis.net/kml/2.2" xmlns:atom="http://www.w3.org/2005/Atom">
<Document>
	<name>campo militar_1730_12-16 hrs.kml</name>
	<StyleMap id="msn_ylw-pushpin25">
		<Pair>
			<key>normal</key>
			<styleUrl>#sn_ylw-pushpin12</styleUrl>
		</Pair>
		<Pair>
			<key>highlight</key>
			<styleUrl>#sh_ylw-pushpin7</styleUrl>
		</Pair>
	</StyleMap>
	<Style id="sn_ylw-pushpin12">
		<IconStyle>
			<scale>1.1</scale>
			<Icon>
				<href>http://maps.google.com/mapfiles/kml/pushpin/ylw-pushpin.png</href>
			</Icon>
			<hotSpot x="20" y="2" xunits="pixels" yunits="pixels"/>
		</IconStyle>
		<LineStyle>
			<color>ffff0055</color>
			<width>5</width>
		</LineStyle>
	</Style>
	<Style id="sh_ylw-pushpin7">
		<IconStyle>
			<scale>1.3</scale>
			<Icon>
				<href>http://maps.google.com/mapfiles/kml/pushpin/ylw-pushpin.png</href>
			</Icon>
			<hotSpot x="20" y="2" xunits="pixels" yunits="pixels"/>
		</IconStyle>
		<LineStyle>
			<color>ffff0055</color>
			<width>5</width>
		</LineStyle>
	</Style>
	<Placemark>
		<name>campo militar_1730_12-16 hrs</name>
		<visibility>0</visibility>
		<styleUrl>#msn_ylw-pushpin25</styleUrl>
		<LineString>
			<tessellate>1</tessellate>
			<coordinates>
				-100.435185005279,20.59912522407033,0 -100.434587392523,20.5941417372638,0 -100.4344855020627,20.59395105142782,0 -100.4341962826873,20.59376935935098,0 -100.4333710800054,20.5937834787963,0 -100.4297067499796,20.59420084923736,0 -100.4275496319559,20.59445473560736,0 -100.4244541114516,20.59449739943292,0 -100.4242520560308,20.59232345190377,0 -100.424056925495,20.59114510586267,0 -100.421288874655,20.59155952348876,0 -100.4195902043784,20.59174569836276,0 -100.4188107317611,20.59163724890468,0 -100.4184601275382,20.59164322536671,0 -100.4179635384117,20.59191212453084,0 -100.4172871344589,20.59224165625177,0 -100.4165769673318,20.59250969710796,0 -100.4171596306528,20.59506890197699,0 -100.4150623543747,20.59519841737841,0 -100.413858152651,20.59517638799288,0 -100.4132197885034,20.5945478667135,0 -100.4128594637739,20.59428124000426,0 -100.4115737782769,20.59475379022572,0 -100.4099608174488,20.59548686646335,0 -100.409304231518,20.59575872410456,0 -100.4084296990146,20.59588762750186,0 -100.4075255028812,20.59563395425481,0 -100.4070009552774,20.59560170492431,0 -100.4071413901775,20.59592665979293,0 -100.4072450742947,20.59628619365634,0 -100.4069737899431,20.59684248041177,0 -100.4066061526728,20.59744824276892,0 -100.4064575156371,20.59861026701203,0 -100.4064831801221,20.59913506760591,0 -100.4064386019683,20.60037508909896,0 -100.4065312463343,20.60226149094051,0 -100.4065791781174,20.60379735359594,0 -100.4055576331731,20.60379546596758,0 -100.4039315942586,20.60374490953631,0 -100.4034651726943,20.60370458609969,0 -100.4019095608488,20.60359400132666,0 -100.3994309124153,20.60363320913115,0 -100.3994372375323,20.60493973979198,0 -100.4015262289015,20.60494610374931,0 -100.4034258117157,20.60492393758417,0 
			</coordinates>
		</LineString>
	</Placemark>
</Document>
</kml>
