<?xml version="1.0" encoding="UTF-8"?>
<kml xmlns="http://www.opengis.net/kml/2.2" xmlns:gx="http://www.google.com/kml/ext/2.2" xmlns:kml="http://www.opengis.net/kml/2.2" xmlns:atom="http://www.w3.org/2005/Atom">
<Document>
	<name>hercules_unid1729.kml</name>
	<StyleMap id="msn_ylw-pushpin23">
		<Pair>
			<key>normal</key>
			<styleUrl>#sn_ylw-pushpin14</styleUrl>
		</Pair>
		<Pair>
			<key>highlight</key>
			<styleUrl>#sh_ylw-pushpin62</styleUrl>
		</Pair>
	</StyleMap>
	<Style id="sh_ylw-pushpin62">
		<IconStyle>
			<scale>1.3</scale>
			<Icon>
				<href>http://maps.google.com/mapfiles/kml/pushpin/ylw-pushpin.png</href>
			</Icon>
			<hotSpot x="20" y="2" xunits="pixels" yunits="pixels"/>
		</IconStyle>
		<LineStyle>
			<color>ff7fffff</color>
			<width>5</width>
		</LineStyle>
	</Style>
	<Style id="sn_ylw-pushpin14">
		<IconStyle>
			<scale>1.1</scale>
			<Icon>
				<href>http://maps.google.com/mapfiles/kml/pushpin/ylw-pushpin.png</href>
			</Icon>
			<hotSpot x="20" y="2" xunits="pixels" yunits="pixels"/>
		</IconStyle>
		<LineStyle>
			<color>ff7fffff</color>
			<width>5</width>
		</LineStyle>
	</Style>
	<Placemark>
		<name>hercules_unid:1729</name>
		<visibility>0</visibility>
		<styleUrl>#msn_ylw-pushpin23</styleUrl>
		<LineString>
			<tessellate>1</tessellate>
			<coordinates>
				-100.3701357159053,20.59842514782234,0 -100.3700030983088,20.5991170737772,0 -100.3697537282021,20.59991756357547,0 -100.3689887823977,20.60057824182024,0 -100.3684988414088,20.60082003771157,0 -100.3671632381349,20.6015967850369,0 -100.3666295265784,20.60179653540857,0 -100.3662654983246,20.60177121043171,0 -100.3663918838461,20.60386538117795,0 -100.3646290552528,20.60389884400693,0 -100.3629768082947,20.60349699378907,0 -100.3619133859284,20.60300859756261,0 -100.3605128087849,20.60225013750983,0 -100.3601873432406,20.60211585977967,0 -100.3588118836052,20.60179821415753,0 -100.3571157224459,20.60168935724963,0 -100.3559167604499,20.60159571311894,0 -100.355364398156,20.60158657893507,0 -100.3545241009826,20.60184054553644,0 -100.3532554753973,20.60245114091561,0 -100.3521503149889,20.60305520236519,0 -100.3512986846147,20.60347195739993,0 -100.350437559622,20.6039026219811,0 -100.3497217774031,20.60432939654606,0 -100.348702850599,20.60490390685469,0 -100.3479471644321,20.60522229217957,0 -100.3474049968949,20.60539936349748,0 -100.3460042656909,20.60575640351474,0 -100.3447979362639,20.60589342383572,0 -100.3438066794869,20.60614509401185,0 -100.3418359575165,20.60752251387305,0 -100.3406774451295,20.60834802251661,0 -100.3386546336914,20.60922503423823,0 -100.3363506028914,20.60960353348698,0 -100.3350079537926,20.60939152661624,0 -100.3341832988285,20.60917961330186,0 -100.3341921518039,20.60731906413499,0 -100.335045909425,20.60734105870845,0 -100.3361376265333,20.60742094973183,0 -100.3368452366903,20.60733479117514,0 -100.3375243182479,20.60712204777561,0 -100.3385126475712,20.60688957073929,0 -100.3390203733953,20.60646404950304,0 -100.3399688206195,20.6054224111308,0 -100.3405102172384,20.60494991599997,0 -100.3414174725909,20.6045488975807,0 -100.3428593881517,20.60407057589342,0 -100.3435907928791,20.6036866190033,0 -100.3443582887211,20.60352101100007,0 -100.345658551673,20.60308278782919,0 -100.3472883899752,20.60234847059538,0 -100.3501553568783,20.60123185927123,0 -100.3520800268181,20.6002311433034,0 -100.3527384950772,20.60004589993381,0 -100.3534835730179,20.59976668231764,0 -100.3543680445077,20.59932573803157,0 -100.3550006364728,20.59905686721853,0 -100.3555484705536,20.59886924148102,0 -100.3558864856873,20.59871601233352,0 -100.3565948799378,20.59877631778401,0 -100.357192478638,20.59902741740869,0 -100.3575460688967,20.5992330448839,0 -100.3577970874241,20.59949444266094,0 -100.3590189704866,20.59994437695515,0 -100.3609053781655,20.60070511193198,0 -100.362100322735,20.6009090886018,0 -100.3629471917007,20.60118603934456,0 -100.3642385980075,20.60160587837183,0 -100.3655069610061,20.60173252653705,0 -100.3659886122118,20.60175853575382,0 -100.3661376903163,20.60179024685617,0 
			</coordinates>
		</LineString>
	</Placemark>
</Document>
</kml>
