<?xml version="1.0" encoding="UTF-8"?>
<kml xmlns="http://www.opengis.net/kml/2.2" xmlns:gx="http://www.google.com/kml/ext/2.2" xmlns:kml="http://www.opengis.net/kml/2.2" xmlns:atom="http://www.w3.org/2005/Atom">
<Document>
	<name>lomas_ 12 -14 hrs_ unidad 1802.kml</name>
	<StyleMap id="LineStyle0034">
		<Pair>
			<key>normal</key>
			<styleUrl>#LineStyle0027</styleUrl>
		</Pair>
		<Pair>
			<key>highlight</key>
			<styleUrl>#LineStyle003</styleUrl>
		</Pair>
	</StyleMap>
	<Style id="LineStyle0027">
		<LabelStyle>
			<color>00000000</color>
			<scale>0</scale>
		</LabelStyle>
		<LineStyle>
			<color>ffffff55</color>
			<width>5.3</width>
		</LineStyle>
		<PolyStyle>
			<color>00000000</color>
			<outline>0</outline>
		</PolyStyle>
	</Style>
	<Style id="LineStyle003">
		<LabelStyle>
			<color>00000000</color>
			<scale>0</scale>
		</LabelStyle>
		<LineStyle>
			<color>ffffff55</color>
			<width>5.3</width>
		</LineStyle>
		<PolyStyle>
			<color>00000000</color>
			<outline>0</outline>
		</PolyStyle>
	</Style>
	<Placemark>
		<name>lomas_ 12 -14 hrs_ unidad 1802</name>
		<visibility>0</visibility>
		<styleUrl>#LineStyle0034</styleUrl>
		<LineString>
			<tessellate>1</tessellate>
			<coordinates>
				-100.3850616466976,20.54908631229776,0 -100.3896445414145,20.54785287929044,0 -100.390132743963,20.54955688451639,0 -100.3872018029851,20.55026644178506,0 -100.3856608318982,20.55073067561519,0 -100.3869789745936,20.5541666149288,0 -100.3882833028218,20.55730940261362,0 -100.3896927754171,20.56099148917845,0 -100.3871065877477,20.56190814459725,0 -100.3869844873258,20.56173094767745,0 -100.3865002530066,20.56190718107895,0 -100.3870316237791,20.56314573016503,0 -100.3896215915458,20.56235654734439,0 -100.3901593629354,20.56215870135114,0 -100.3895392918098,20.56072966962017,0 -100.3892373523196,20.55991910658714,0 -100.3914249604729,20.55921954803874,0 -100.3921729320474,20.55899844278962,0 -100.3934970651445,20.56302498359284,0 -100.394840014267,20.5680593686396,0 -100.3921072484043,20.56891179687811,0 -100.3930635202151,20.57151134329793,0 -100.3867924539138,20.57305287051172,0 -100.3874055415174,20.5739645415103,0 -100.393478959026,20.57246702950316,0 -100.3939540473532,20.57234723443147,0 
			</coordinates>
		</LineString>
	</Placemark>
</Document>
</kml>
