<?xml version="1.0" encoding="UTF-8"?>
<kml xmlns="http://www.opengis.net/kml/2.2" xmlns:gx="http://www.google.com/kml/ext/2.2" xmlns:kml="http://www.opengis.net/kml/2.2" xmlns:atom="http://www.w3.org/2005/Atom">
<Document>
	<name>Peñuelas - Sombrerete 1711 de 0600 a 2000.kml</name>
	<visibility>0</visibility>
	<Style id="sh_ylw-pushpin2020">
		<IconStyle>
			<scale>1.3</scale>
			<Icon>
				<href>http://maps.google.com/mapfiles/kml/pushpin/ylw-pushpin.png</href>
			</Icon>
			<hotSpot x="20" y="2" xunits="pixels" yunits="pixels"/>
		</IconStyle>
		<LineStyle>
			<color>ff0000aa</color>
			<width>5</width>
		</LineStyle>
	</Style>
	<StyleMap id="msn_ylw-pushpin1001">
		<Pair>
			<key>normal</key>
			<styleUrl>#sn_ylw-pushpin1030</styleUrl>
		</Pair>
		<Pair>
			<key>highlight</key>
			<styleUrl>#sh_ylw-pushpin2020</styleUrl>
		</Pair>
	</StyleMap>
	<Style id="sn_ylw-pushpin1030">
		<IconStyle>
			<scale>1.1</scale>
			<Icon>
				<href>http://maps.google.com/mapfiles/kml/pushpin/ylw-pushpin.png</href>
			</Icon>
			<hotSpot x="20" y="2" xunits="pixels" yunits="pixels"/>
		</IconStyle>
		<LineStyle>
			<color>ff0000aa</color>
			<width>5</width>
		</LineStyle>
	</Style>
	<Placemark>
		<name>Peñuelas - Sombrerete 1711 de 06:00 a 20:00</name>
		<visibility>0</visibility>
		<styleUrl>#msn_ylw-pushpin1001</styleUrl>
		<LineString>
			<tessellate>1</tessellate>
			<coordinates>
				-100.3940940560591,20.65140234471986,0 -100.3940691563062,20.65149280734981,0 -100.3963758230792,20.65188541001765,0 -100.3985064031886,20.65222226036817,0 -100.4022263405017,20.65280797189806,0 -100.4020296591374,20.65385078619281,0 -100.4028644783165,20.65397395586206,0 -100.4035192498514,20.65408423408082,0 -100.4037322669058,20.65306237080685,0 -100.4044762060819,20.64864538787813,0 -100.4084723895421,20.64925987467738,0 -100.409026506156,20.64922997950002,0 -100.416070800072,20.64844250256103,0 -100.416117246086,20.6479575510921,0 -100.4162548278634,20.64533896417188,0 -100.4155929128131,20.64224668612424,0 -100.414712951781,20.63721935526465,0 -100.4141152618453,20.6346664264285,0 -100.4134391625063,20.63218966129239,0 -100.4126739032131,20.62736376004127,0 -100.4065205049198,20.62789375666358,0 -100.3997793055872,20.62498604833886,0 -100.3992755178878,20.62470333581441,0 -100.3982126700948,20.62468551045269,0 -100.3952826235245,20.62334185537493,0 -100.394060865586,20.6229003608359,0 -100.3933350636649,20.62234821688436,0 -100.3925049734096,20.6218007249721,0 -100.3919708591428,20.62132600015288,0 -100.3909408904379,20.62098649033274,0 -100.3904960779501,20.62100274372652,0 -100.3904469498014,20.62127409368995,0 -100.3906086771105,20.62142606925306,0 -100.3911755451937,20.62170351566594,0 -100.3936083412799,20.62277059820317,0 -100.3952073645617,20.6235011939431,0 -100.3952639864401,20.6256323435195,0 -100.3955450897206,20.63061793808206,0 -100.3956671376982,20.63191501810055,0 -100.3955525165321,20.63410865110643,0 -100.3953866971975,20.63592210394562,0 -100.4010024024361,20.63519711892665,0 -100.4008753138641,20.63631822759896,0 -100.4006874358581,20.6374345671269,0 -100.4006136841909,20.63861150882423,0 -100.3995088004987,20.63864335280985,0 -100.3984170162719,20.63868312718485,0 -100.3983474895523,20.63966543344233,0 -100.3981829634141,20.64048392429502,0 -100.3953569586097,20.63997816445669,0 -100.3957927689482,20.64182243939961,0 -100.3954860281096,20.64359617148012,0 -100.3950496291264,20.647112420215,0 
			</coordinates>
		</LineString>
	</Placemark>
</Document>
</kml>
