<?xml version="1.0" encoding="UTF-8"?>
<kml xmlns="http://www.opengis.net/kml/2.2" xmlns:gx="http://www.google.com/kml/ext/2.2" xmlns:kml="http://www.opengis.net/kml/2.2" xmlns:atom="http://www.w3.org/2005/Atom">
<Document>
	<name>Ruta Paseos del Pedregal- 1733 de 7 a 8 am.kml</name>
	<visibility>0</visibility>
	<Style id="sh_ylw-pushpin122">
		<IconStyle>
			<scale>1.3</scale>
			<Icon>
				<href>http://maps.google.com/mapfiles/kml/pushpin/ylw-pushpin.png</href>
			</Icon>
			<hotSpot x="20" y="2" xunits="pixels" yunits="pixels"/>
		</IconStyle>
		<LineStyle>
			<color>ffffaa00</color>
			<width>5</width>
		</LineStyle>
	</Style>
	<StyleMap id="msn_ylw-pushpin610">
		<Pair>
			<key>normal</key>
			<styleUrl>#sn_ylw-pushpin410</styleUrl>
		</Pair>
		<Pair>
			<key>highlight</key>
			<styleUrl>#sh_ylw-pushpin122</styleUrl>
		</Pair>
	</StyleMap>
	<Style id="sn_ylw-pushpin410">
		<IconStyle>
			<scale>1.1</scale>
			<Icon>
				<href>http://maps.google.com/mapfiles/kml/pushpin/ylw-pushpin.png</href>
			</Icon>
			<hotSpot x="20" y="2" xunits="pixels" yunits="pixels"/>
		</IconStyle>
		<LineStyle>
			<color>ffffaa00</color>
			<width>5</width>
		</LineStyle>
	</Style>
	<Placemark>
		<name>Ruta Paseos del Pedregal- 1733 de 7 a 8 am</name>
		<visibility>0</visibility>
		<styleUrl>#msn_ylw-pushpin610</styleUrl>
		<LineString>
			<tessellate>1</tessellate>
			<coordinates>
				-100.4005795500789,20.66573004143835,0 -100.3997066029791,20.66254748584356,0 -100.3997947954427,20.66211507233271,0 -100.3999298631233,20.66195057845384,0 -100.4001680597199,20.66173845424027,0 -100.4006004679018,20.6615923263031,0 -100.401973792511,20.66111916411432,0 -100.4022611008408,20.66089760023915,0 -100.4023989985164,20.66054711966636,0 -100.4024044542943,20.66053571876093,0 -100.4024038180252,20.66052100214882,0 -100.4024031782752,20.66050632994947,0 -100.402402922895,20.66050047409399,0 -100.4023970372317,20.66041579293818,0 -100.4024401954801,20.66032783391529,0 -100.4025169536369,20.65981651430623,0 -100.4026488174463,20.65901122436804,0 -100.4032969080113,20.65544084711742,0 -100.403738641154,20.6530052408394,0 -100.4045707152419,20.64852792308662,0 -100.405668066093,20.64102256285522,0 -100.415581500643,20.64230987313881,0 -100.4127132155272,20.62734754835585,0 -100.4064337026687,20.62792662746445,0 -100.399465014915,20.62484131540215,0 -100.3981878033239,20.62470812108237,0 -100.3953244095811,20.62339978944886,0 -100.3944142095145,20.62305157455732,0 -100.3930931187292,20.62224911345204,0 -100.3929512144504,20.62231163869362,0 -100.3929202974076,20.62242531372651,0 -100.3930411115001,20.62251835994427,0 -100.3944775608177,20.62316961705152,0 -100.3951367006894,20.62350747486019,0 -100.3971237856073,20.6243813945083,0 -100.3996758513573,20.62558778415514,0 -100.40647940712,20.62832913726965,0 -100.4066396227398,20.62966444140645,0 -100.405779980295,20.63336290112183,0 -100.4057639074713,20.63336240683622,0 -100.4060641476843,20.63492058545777,0 -100.4012416879033,20.63416257702502,0 -100.4007863654152,20.6372785825348,0 -100.4006396621671,20.64050879138381,0 -100.4054397013403,20.64117566873289,0 
			</coordinates>
		</LineString>
	</Placemark>
</Document>
</kml>
