<?xml version="1.0" encoding="UTF-8"?>
<kml xmlns="http://www.opengis.net/kml/2.2" xmlns:gx="http://www.google.com/kml/ext/2.2" xmlns:kml="http://www.opengis.net/kml/2.2" xmlns:atom="http://www.w3.org/2005/Atom">
<Document>
	<name>Ruta Lomas del Marquez 1717 de 12 a 13 pm.kml</name>
	<visibility>0</visibility>
	<Style id="sh_ylw-pushpin52">
		<IconStyle>
			<scale>1.3</scale>
			<Icon>
				<href>http://maps.google.com/mapfiles/kml/pushpin/ylw-pushpin.png</href>
			</Icon>
			<hotSpot x="20" y="2" xunits="pixels" yunits="pixels"/>
		</IconStyle>
		<LineStyle>
			<color>ff00ffaa</color>
			<width>5</width>
		</LineStyle>
	</Style>
	<Style id="sn_ylw-pushpin330">
		<IconStyle>
			<scale>1.1</scale>
			<Icon>
				<href>http://maps.google.com/mapfiles/kml/pushpin/ylw-pushpin.png</href>
			</Icon>
			<hotSpot x="20" y="2" xunits="pixels" yunits="pixels"/>
		</IconStyle>
		<LineStyle>
			<color>ff00ffaa</color>
			<width>5</width>
		</LineStyle>
	</Style>
	<StyleMap id="msn_ylw-pushpin070">
		<Pair>
			<key>normal</key>
			<styleUrl>#sn_ylw-pushpin330</styleUrl>
		</Pair>
		<Pair>
			<key>highlight</key>
			<styleUrl>#sh_ylw-pushpin52</styleUrl>
		</Pair>
	</StyleMap>
	<Placemark>
		<name>Ruta Lomas del Marquez 1717 de 12 a 13 pm</name>
		<visibility>0</visibility>
		<styleUrl>#msn_ylw-pushpin070</styleUrl>
		<LineString>
			<tessellate>1</tessellate>
			<coordinates>
				-100.3752821905669,20.6136608524737,0 -100.3754104141656,20.61310422361269,0 -100.3756129903312,20.6129486676666,0 -100.3767104177431,20.61262527169901,0 -100.3765176892546,20.61212270949865,0 -100.376604123525,20.611858127217,0 -100.3766049294977,20.61147749174303,0 -100.376676851032,20.61129170571352,0 -100.3770241138899,20.61100658202234,0 -100.3771366291683,20.6109661301597,0 -100.3771256828701,20.61083167343608,0 -100.3765548724867,20.61077524076866,0 -100.3756718056642,20.61128634373423,0 -100.3752407250415,20.61139397188135,0 -100.3748485984711,20.6113385504043,0 -100.3747016877129,20.6111597639385,0 -100.3747440004124,20.61098264870521,0 -100.3748350311169,20.61083121305354,0 -100.3753320858533,20.61018557587661,0 -100.3753671168536,20.610058569141,0 -100.3753514544184,20.60977393004885,0 -100.3752217952821,20.60957359939922,0 -100.3739896863406,20.60902674339418,0 -100.3722051630829,20.60913775483764,0 -100.371889996728,20.60920635556715,0 -100.3714529547315,20.6096235261784,0 -100.3713310801466,20.60998352097809,0 -100.3712179340929,20.61069366443193,0 -100.3711433980323,20.61089882756292,0 -100.3710140342135,20.61132405197589,0 -100.3706853642114,20.61162715857944,0 -100.3701584821554,20.61179198717607,0 -100.3695298985523,20.61164781011783,0 -100.3679880133809,20.6109603972416,0 -100.3671606740204,20.61060403435419,0 -100.3653062663209,20.61068376979948,0 
			</coordinates>
		</LineString>
	</Placemark>
</Document>
</kml>
