<?xml version="1.0" encoding="UTF-8"?>
<kml xmlns="http://www.opengis.net/kml/2.2" xmlns:gx="http://www.google.com/kml/ext/2.2" xmlns:kml="http://www.opengis.net/kml/2.2" xmlns:atom="http://www.w3.org/2005/Atom">
<Document>
	<name>Ruta San Jose 1734 de 19 a 20 pm.kml</name>
	<visibility>0</visibility>
	<Style id="sn_ylw-pushpin003">
		<IconStyle>
			<scale>1.1</scale>
			<Icon>
				<href>http://maps.google.com/mapfiles/kml/pushpin/ylw-pushpin.png</href>
			</Icon>
			<hotSpot x="20" y="2" xunits="pixels" yunits="pixels"/>
		</IconStyle>
		<LineStyle>
			<color>ff00aaff</color>
			<width>5</width>
		</LineStyle>
	</Style>
	<Style id="sh_ylw-pushpin34">
		<IconStyle>
			<scale>1.3</scale>
			<Icon>
				<href>http://maps.google.com/mapfiles/kml/pushpin/ylw-pushpin.png</href>
			</Icon>
			<hotSpot x="20" y="2" xunits="pixels" yunits="pixels"/>
		</IconStyle>
		<LineStyle>
			<color>ff00aaff</color>
			<width>5</width>
		</LineStyle>
	</Style>
	<StyleMap id="msn_ylw-pushpin142">
		<Pair>
			<key>normal</key>
			<styleUrl>#sn_ylw-pushpin003</styleUrl>
		</Pair>
		<Pair>
			<key>highlight</key>
			<styleUrl>#sh_ylw-pushpin34</styleUrl>
		</Pair>
	</StyleMap>
	<Placemark>
		<name>Ruta San Jose 1734 de 19 a 20 pm</name>
		<visibility>0</visibility>
		<styleUrl>#msn_ylw-pushpin142</styleUrl>
		<LineString>
			<tessellate>1</tessellate>
			<coordinates>
				-100.3778639778578,20.65591016294703,0 -100.3768920007488,20.65591525743623,0 -100.3774306983306,20.65419064374931,0 -100.3775124241213,20.65417677284089,0 -100.3784358416095,20.65382048478692,0 -100.3792090671928,20.65376620388833,0 -100.3807009074733,20.65363058307832,0 -100.3822183455189,20.6535117164339,0 -100.3835963148536,20.65338614672492,0 -100.3886329456648,20.6531111427163,0 -100.3910635033787,20.65195897002705,0 -100.3915189393454,20.65145604258283,0 -100.3917392537719,20.65059041481626,0 -100.3916837115486,20.64983247057439,0 -100.3916322099407,20.64880356948,0 -100.3920305426795,20.64668527682601,0 -100.3927435277217,20.64398056364673,0 -100.3931620549538,20.64246314683104,0 -100.3934445413499,20.64045500913983,0 -100.3937720171736,20.63720321092717,0 -100.3939455356502,20.63540306133153,0 -100.3935755348725,20.634697119671,0 -100.392928491806,20.63425827361922,0 -100.3920337439014,20.63397028298924,0 -100.3904600246133,20.63342812174512,0 -100.3903544641785,20.63329448409561,0 -100.3903108792265,20.63310208734845,0 -100.3904088882341,20.63290504261058,0 -100.3911637325681,20.6315012285793,0 -100.391243987062,20.63114023448262,0 -100.3910612995354,20.63047263654914,0 -100.3908708714542,20.62962063442856,0 -100.390561521989,20.62888435799645,0 -100.3901404497958,20.62829989055501,0 -100.3893953803497,20.62778196331566,0 -100.3885510963645,20.62747859214695,0 -100.3876371699211,20.62742853308952,0 -100.3862475700653,20.62732627222602,0 -100.3857106768002,20.62723361123939,0 -100.3854921189908,20.62699526789091,0 -100.3854667191781,20.6267244330165,0 -100.3855960912225,20.62652231103546,0 -100.3860386295268,20.62626600326621,0 -100.3866915394367,20.62595090145711,0 -100.3879765930459,20.62528408084795,0 -100.3886218740394,20.62489401194462,0 -100.3886285231802,20.62489795311257,0 -100.3900508061657,20.62280908647781,0 -100.390141543461,20.62123548641908,0 -100.3904170788603,20.62135520105538,0 -100.3927576418608,20.62241699145343,0 -100.3951614809888,20.62354397782581,0 -100.3965049053716,20.62412391791823,0 -100.3997272737412,20.62548568319758,0 -100.4029166303808,20.62687528222569,0 -100.4058678138762,20.62813082189766,0 -100.4065231040531,20.6279902259965,0 -100.4062324159113,20.62559546015644,0 -100.4076436388512,20.62549088723907,0 
			</coordinates>
		</LineString>
	</Placemark>
</Document>
</kml>
