<?xml version="1.0" encoding="UTF-8"?>
<kml xmlns="http://www.opengis.net/kml/2.2" xmlns:gx="http://www.google.com/kml/ext/2.2" xmlns:kml="http://www.opengis.net/kml/2.2" xmlns:atom="http://www.w3.org/2005/Atom">
<Document>
	<name>Santa Rosa- Montenegro 1723 de 0600 a 2000.kml</name>
	<visibility>0</visibility>
	<Style id="sn_ylw-pushpin4002">
		<IconStyle>
			<scale>1.1</scale>
			<Icon>
				<href>http://maps.google.com/mapfiles/kml/pushpin/ylw-pushpin.png</href>
			</Icon>
			<hotSpot x="20" y="2" xunits="pixels" yunits="pixels"/>
		</IconStyle>
		<LineStyle>
			<color>ff000055</color>
			<width>5</width>
		</LineStyle>
	</Style>
	<StyleMap id="msn_ylw-pushpin501">
		<Pair>
			<key>normal</key>
			<styleUrl>#sn_ylw-pushpin4002</styleUrl>
		</Pair>
		<Pair>
			<key>highlight</key>
			<styleUrl>#sh_ylw-pushpin5000</styleUrl>
		</Pair>
	</StyleMap>
	<Style id="sh_ylw-pushpin5000">
		<IconStyle>
			<scale>1.3</scale>
			<Icon>
				<href>http://maps.google.com/mapfiles/kml/pushpin/ylw-pushpin.png</href>
			</Icon>
			<hotSpot x="20" y="2" xunits="pixels" yunits="pixels"/>
		</IconStyle>
		<LineStyle>
			<color>ff000055</color>
			<width>5</width>
		</LineStyle>
	</Style>
	<Placemark>
		<name>Santa Rosa- Montenegro 1723 de 06:00 a 20:00</name>
		<visibility>0</visibility>
		<styleUrl>#msn_ylw-pushpin501</styleUrl>
		<LineString>
			<tessellate>1</tessellate>
			<coordinates>
				-100.4464652204475,20.74538516887611,0 -100.4507299880592,20.74523400407456,0 -100.4508228635905,20.74411384186429,0 -100.4508421700604,20.74229691711659,0 -100.4496830501671,20.7423503007508,0 -100.4498479144151,20.73784655152477,0 -100.4474647210066,20.73758697638984,0 -100.4471409377011,20.73682597983454,0 -100.4430109538556,20.73676678535148,0 -100.4426303777384,20.74128681882171,0 -100.4430436237076,20.74994845155134,0 -100.4431507193716,20.75060125979939,0 -100.442406074646,20.7522706480445,0 -100.4408054149183,20.75562154294271,0 -100.4372008682153,20.76063508758531,0 -100.4359992583033,20.7612565995965,0 -100.4358965015337,20.76483522114555,0 -100.4360561031429,20.76480157870839,0 -100.436146537571,20.76110539489825,0 -100.4271718159355,20.7638746203504,0 
			</coordinates>
		</LineString>
	</Placemark>
</Document>
</kml>
